<?xml version="1.0" encoding="UTF-8"?>
<!DOCTYPE svg PUBLIC "-//W3C//DTD SVG 1.1//EN" "http://www.w3.org/Graphics/SVG/1.1/DTD/svg11.dtd">
<svg xmlns="http://www.w3.org/2000/svg" xmlns:xlink="http://www.w3.org/1999/xlink" version="1.1" width="235px" height="235px" viewBox="-0.5 -0.5 235 235">
    <defs/>
    <g>
        <rect x="-33" y="102" width="300" height="30" rx="4.5" ry="4.5" fill="#000000" stroke="none" transform="rotate(45,117,117)" pointer-events="all"/>
        <rect x="-33" y="102" width="300" height="30" rx="4.5" ry="4.5" fill="#000000" stroke="none" transform="rotate(-45,117,117)" pointer-events="all"/>
    </g>
</svg>
